{
    "name": "Reserva",
    "fields": [
        {
            "fieldName": "startDate",
            "fieldType": "LocalDate"
        },
        {
            "fieldName": "endDate",
            "fieldType": "LocalDate"
        }
    ],
    "relationships": [
        {
            "relationshipType": "many-to-one",
            "otherEntityName": "inmueble",
            "otherEntityRelationshipName": "reserva",
            "relationshipName": "inmueble",
            "otherEntityField": "name"
        }
    ],
    "changelogDate": "20190913021433",
    "entityTableName": "reserva",
    "dto": "mapstruct",
    "pagination": "no",
    "service": "serviceImpl",
    "jpaMetamodelFiltering": false,
    "fluentMethods": true,
    "clientRootFolder": "",
    "applications": "*"
}